…
We could also consider examining the words with the greatest difference in beta between two topics. This can be estimated based on the log ratio of the two. We can filter for relatively common words to make the example more concrete. Here, we filter for words with a beta greater than 0.005.

``` r
library(tidyr)
beta_wide <- ap_topics %>%
  mutate(topic = paste0("topic", topic)) %>%
  pivot_wider(names_from = topic, values_from = beta) %>% 
  filter(topic1 > .005 | topic2 > .005) %>%
  mutate(log_ratio = log2(topic2 / topic1))

beta_wide
```

    # A tibble: 167 × 8
       term     topic1    topic2    topic3    topic4    topic5   topic6 log_ratio
       <chr>     <dbl>     <dbl>     <dbl>     <dbl>     <dbl>    <dbl>     <dbl>
     1 alarm   0.00904 6.55e- 75 5.20e-  3 8.16e-242 4.63e-104 1.31e-74 -240.    
     2 balance 0.00904 2.67e-104 2.07e-104 2.80e-248 2.46e-104 9.48e-75 -337.    
     3 bed     0.0422  5.92e-  2 1.32e-  2 1.89e-  2 3.67e-  2 2.47e-74    0.489 
     4 binge   0.00602 9.51e- 75 8.36e- 75 6.29e-  3 5.69e-  3 1.89e-74 -239.    
     5 brain   0.0120  1.18e-  2 2.38e-  7 6.29e-  3 1.14e-  2 1.18e- 2   -0.0258
     6 busy    0.00602 3.72e- 44 5.13e-  3 1.26e-  2 8.49e-  5 1.95e-74 -137.    
     7 chinese 0.00904 3.72e- 44 2.59e-104 1.52e-247 3.07e-104 1.18e- 2 -137.    
     8 clock   0.00602 5.92e-  3 1.04e-  2 1.43e-243 6.53e- 75 1.35e-74   -0.0258
     9 concern 0.00301 5.92e-  3 3.15e-104 5.91e-240 5.66e- 75 1.17e-74    0.974 
    10 control 0.0151  5.92e-  3 1.82e-  2 6.29e-  3 1.99e-  2 4.71e- 2   -1.35  
    # … with 157 more rows
…
