Using NLP for examining entrepreneurs’ business errors
…
library(topicmodels)
rowTotals <- apply(TextDoc_dtm , 1, sum)
TextDoc_dtm   <- TextDoc_dtm[rowTotals> 0, ] 
# set a seed so that the output of the model is predictable
ap_lda <- LDA(TextDoc_dtm, k = 11, control = list(seed = 1234))
ap_lda

A LDA_VEM topic model with 11 topics.

#> A LDA_VEM topic model with 2 topics.

ap_topics <- tidy(ap_lda, matrix = "beta")
ap_topics

# A tibble: 1,529 × 3
   topic term       beta
   <int> <chr>     <dbl>
 1     1 rend  4.87e-  2
 2     2 rend  2.69e-133
 3     3 rend  7.70e-130
 4     4 rend  1.52e-128
 5     5 rend  2.22e-152
 6     6 rend  6.69e- 44
 7     7 rend  5.62e-127
 8     8 rend  1.26e-137
 9     9 rend  7.37e-127
10    10 rend  4.43e-139
# … with 1,519 more rows
…
rowTotals <- apply(TextDoc_dtm , 1, sum)
TextDoc_dtm   <- TextDoc_dtm[rowTotals> 0, ] 
# set a seed so that the output of the model is predictable
ap_lda <- LDA(TextDoc_dtm, k = 10, control = list(seed = 1234))
ap_lda

A LDA_VEM topic model with 10 topics.

#> A LDA_VEM topic model with 2 topics.

ap_topics <- tidy(ap_lda, matrix = "beta")
ap_topics

# A tibble: 1,390 × 3
   topic term       beta
   <int> <chr>     <dbl>
 1     1 rend  4.44e-  2
 2     2 rend  3.48e- 93
 3     3 rend  2.41e- 88
 4     4 rend  2.42e- 84
 5     5 rend  1.18e-105
 6     6 rend  5.93e- 60
 7     7 rend  5.37e- 90
 8     8 rend  5.87e- 94
 9     9 rend  2.76e- 88
10    10 rend  1.23e- 93
# … with 1,380 more rows
…
rowTotals <- apply(TextDoc_dtm , 1, sum)
TextDoc_dtm   <- TextDoc_dtm[rowTotals> 0, ] 
# set a seed so that the output of the model is predictable
ap_lda <- LDA(TextDoc_dtm, k = 9, control = list(seed = 1234))
ap_lda

A LDA_VEM topic model with 9 topics.

#> A LDA_VEM topic model with 2 topics.

ap_topics <- tidy(ap_lda, matrix = "beta")
ap_topics

# A tibble: 1,251 × 3
   topic term      beta
   <int> <chr>    <dbl>
 1     1 rend  3.51e- 2
 2     2 rend  3.78e-71
 3     3 rend  1.08e-64
 4     4 rend  1.59e-59
 5     5 rend  8.88e-81
 6     6 rend  5.95e-33
 7     7 rend  8.40e-76
 8     8 rend  4.06e-70
 9     9 rend  4.02e-65
10     1 space 5.06e- 4
# … with 1,241 more rows
…
rowTotals <- apply(TextDoc_dtm , 1, sum)
TextDoc_dtm   <- TextDoc_dtm[rowTotals> 0, ] 
# set a seed so that the output of the model is predictable
ap_lda <- LDA(TextDoc_dtm, k = 8, control = list(seed = 1234))
ap_lda

A LDA_VEM topic model with 8 topics.

#> A LDA_VEM topic model with 2 topics.

ap_topics <- tidy(ap_lda, matrix = "beta")
ap_topics

# A tibble: 1,112 × 3
   topic term      beta
   <int> <chr>    <dbl>
 1     1 rend  1.43e- 2
 2     2 rend  6.31e-68
 3     3 rend  2.07e-66
 4     4 rend  4.87e-49
 5     5 rend  4.22e-77
 6     6 rend  1.86e- 2
 7     7 rend  9.61e-69
 8     8 rend  1.08e-70
 9     1 space 9.30e-80
10     2 space 4.12e-87
# … with 1,102 more rows
…
7 Topics

# set a seed so that the output of the model is predictable
ap_lda <- LDA(TextDoc_dtm, k = 7, control = list(seed = 1234))
ap_lda

A LDA_VEM topic model with 7 topics.

#> A LDA_VEM topic model with 2 topics.

ap_topics <- tidy(ap_lda, matrix = "beta")
ap_topics

# A tibble: 973 × 3
   topic term      beta
   <int> <chr>    <dbl>
 1     1 rend  3.16e- 2
 2     2 rend  2.97e-64
 3     3 rend  9.07e-66
 4     4 rend  5.91e-64
 5     5 rend  1.02e-72
 6     6 rend  4.79e-50
 7     7 rend  2.33e-67
 8     1 space 1.58e- 2
 9     2 space 2.29e-51
10     3 space 4.27e-55
# … with 963 more rows
…
6 Topics

# set a seed so that the output of the model is predictable
ap_lda <- LDA(TextDoc_dtm, k = 6, control = list(seed = 1234))
ap_lda

A LDA_VEM topic model with 6 topics.

#> A LDA_VEM topic model with 2 topics.

ap_topics <- tidy(ap_lda, matrix = "beta")
ap_topics

# A tibble: 834 × 3
   topic term      beta
   <int> <chr>    <dbl>
 1     1 rend  5.39e-12
 2     2 rend  2.30e-53
 3     3 rend  2.93e-60
 4     4 rend  1.11e- 2
 5     5 rend  1.67e-60
 6     6 rend  1.16e- 2
 7     1 space 6.32e-58
 8     2 space 2.52e-69
 9     3 space 4.62e-77
10     4 space 4.29e-55
# … with 824 more rows
…
