…
We could also consider examining the words with the greatest difference in beta between two topics. This can be estimated based on the log ratio of the two. We can filter for relatively common words to make the example more concrete. Here, we filter for words with a beta greater than 0.001.

``` r
library(tidyr)
beta_wide <- ap_topics %>%
  mutate(topic = paste0("topic", topic)) %>%
  pivot_wider(names_from = topic, values_from = beta) %>% 
  filter(topic1 > .001 | topic2 > .001) %>%
  mutate(log_ratio = log2(topic2 / topic1))

beta_wide
```

    # A tibble: 59 × 8
       term        topic1   topic2   topic3   topic4   topic5   topic6 log_ratio
       <chr>        <dbl>    <dbl>    <dbl>    <dbl>    <dbl>    <dbl>     <dbl>
     1 financial 1.24e- 2 9.01e-60 2.00e- 2 7.09e-23 1.12e-13 4.47e-43  -190.   
     2 month     7.43e- 2 2.18e-29 1.92e-48 1.20e-78 1.14e-58 2.59e-45   -91.5  
     3 revenue   2.27e- 2 4.89e-69 1.78e-75 2.45e-63 1.29e- 2 3.24e-74  -221.   
     4 support   3.72e- 2 6.41e-25 3.27e-68 1.18e-21 3.88e-31 4.42e-25   -75.6  
     5 time      2.58e- 2 3.43e- 2 4.79e-14 1.23e- 1 8.13e-23 2.26e- 3     0.408
     6 unable    2.48e- 2 6.61e-18 3.88e-28 4.38e-52 5.72e-10 1.53e-61   -51.7  
     7 company   4.81e-47 6.45e- 2 2.68e-42 3.58e-39 1.13e-71 2.67e-35   150.   
     8 contact   4.77e-69 2.58e- 2 1.33e-74 1.39e-71 3.81e-30 4.05e-71   222.   
     9 day       5.11e-59 5.02e- 2 1.01e- 2 4.96e-14 6.97e-36 1.15e- 3   189.   
    10 job       9.47e-69 5.16e- 2 3.06e-75 5.72e-71 2.03e-74 6.21e-25   222.   
    # … with 49 more rows
…
